Astronauts
…
---

#Nationality

.pull-left[
Nationality of those who have been to space:

```
## # A tibble: 40 x 2
## # Groups:   nationality [40]
##    nationality        n
##    <chr>          <int>
##  1 U.S.             854
##  2 U.S.S.R/Russia   273
##  3 Japan             20
##  4 Canada            18
##  5 France            18
##  6 Germany           16
##  7 China             14
##  8 Italy             13
##  9 U.K./U.S.          6
## 10 Australia          4
## # … with 30 more rows
```
…
